<svg width="59" height="59" viewBox="0 0 59 59" fill="none" xmlns="http://www.w3.org/2000/svg">
<path d="M47.1743 29.6423C47.1743 35.6934 42.2782 40.5987 36.2385 40.5987C30.1988 40.5987 25.3027 35.6934 25.3027 29.6423C25.3027 23.5912 30.1988 18.6858 36.2385 18.6858C42.2782 18.6858 47.1743 23.5912 47.1743 29.6423Z" fill="#F79F1A"/>
<path d="M33.6831 29.6423C33.6831 35.6934 28.7869 40.5987 22.7473 40.5987C16.7076 40.5987 11.8115 35.6934 11.8115 29.6423C11.8115 23.5912 16.7076 18.6858 22.7473 18.6858C28.7869 18.6858 33.6831 23.5912 33.6831 29.6423Z" fill="#EA001B"/>
<path d="M29.4932 21.0173C26.9416 23.0231 25.3037 26.14 25.3037 29.6413C25.3037 33.1427 26.9416 36.2619 29.4932 38.2677C32.0448 36.2619 33.6827 33.1427 33.6827 29.6413C33.6827 26.14 32.0448 23.0231 29.4932 21.0173Z" fill="#FF5F01"/>
</svg>
