<svg width="27" height="27" viewBox="0 0 27 27" fill="none" xmlns="http://www.w3.org/2000/svg">
<path d="M13.5 0C20.9555 0 27 6.04449 27 13.5C27 20.9555 20.9552 27 13.5 27C6.04476 27 0 20.9571 0 13.5C0 6.04287 6.04368 0 13.5 0Z" fill="#53AE94"/>
<path d="M15.1669 11.7015V9.69321H19.7594V6.6333H7.25405V9.69321H11.847V11.6999C8.11427 11.8713 5.30762 12.6106 5.30762 13.4962C5.30762 14.3818 8.11562 15.121 11.847 15.2936V21.7263H15.168V15.293C18.894 15.121 21.695 14.3823 21.695 13.4975C21.695 12.6127 18.894 11.874 15.168 11.702L15.1669 11.7015ZM15.168 14.7482V14.7465C15.0743 14.7525 14.5929 14.7814 13.521 14.7814C12.664 14.7814 12.0611 14.7571 11.8486 14.746V14.7487C8.55086 14.6026 6.08927 14.0283 6.08927 13.3412C6.08927 12.654 8.55113 12.0806 11.8486 11.9342V14.1766C12.0646 14.1914 12.6824 14.2279 13.5351 14.2279C14.5592 14.2279 15.0741 14.1852 15.1686 14.1766V11.9342C18.4599 12.0808 20.9158 12.6557 20.9158 13.3404C20.9158 14.0251 18.4588 14.6002 15.1686 14.7468" fill="white"/>
</svg>
