<svg width="704" height="900" viewBox="0 0 704 900" fill="none" xmlns="http://www.w3.org/2000/svg">
<path d="M-292.88 672.409C-266.888 799.588 -123.297 940 94.6103 940C312.518 940 245.904 526.757 379.361 528.705C512.818 530.653 727.273 492.71 701.943 343.664C672.894 172.725 200.14 -333.597 -13.4229 -12.7232C-76.6313 82.24 0.574768 222.345 -44.2344 283.706C-150.828 429.66 -330.623 487.755 -292.88 672.409Z" fill="#1D62C9"/>
<path d="M170.093 537.374L155.965 512.215L163.585 508.009C165.611 506.894 167.994 506.622 170.219 507.25C172.444 507.879 174.332 509.358 175.474 511.368L181.098 521.395C181.654 522.389 182.007 523.484 182.137 524.616C182.267 525.747 182.172 526.894 181.856 527.988C181.541 529.083 181.011 530.104 180.299 530.993C179.586 531.882 178.704 532.621 177.704 533.167L170.093 537.374ZM161.977 513.913L171.807 531.443L175.573 529.369C176.068 529.099 176.505 528.732 176.858 528.292C177.211 527.851 177.473 527.346 177.629 526.803C177.785 526.261 177.833 525.693 177.768 525.133C177.704 524.572 177.529 524.03 177.253 523.537L171.635 513.504C171.07 512.508 170.135 511.775 169.033 511.463C167.93 511.151 166.75 511.287 165.746 511.84L161.977 513.913Z" fill="#E75152"/>
<path d="M140.643 577.59L104.183 512.621C104.09 512.457 104.031 512.275 104.01 512.088C103.988 511.901 104.003 511.711 104.055 511.529C104.107 511.348 104.195 511.179 104.313 511.032C104.43 510.884 104.576 510.762 104.742 510.671L147.211 487.294C147.546 487.109 147.94 487.064 148.308 487.168C148.676 487.272 148.988 487.517 149.177 487.85L185.637 552.819C185.729 552.983 185.787 553.164 185.809 553.351C185.83 553.539 185.815 553.728 185.762 553.909C185.71 554.091 185.622 554.26 185.504 554.406C185.386 554.553 185.24 554.676 185.074 554.766L142.608 578.146C142.273 578.33 141.879 578.375 141.511 578.271C141.144 578.167 140.831 577.922 140.643 577.59Z" fill="#E75152"/>
<path d="M168.912 563.666L131.054 496.191L129.852 496.852C129.651 496.962 129.474 497.11 129.33 497.288C129.187 497.467 129.081 497.672 129.017 497.892C128.954 498.112 128.934 498.342 128.961 498.57C128.987 498.797 129.058 499.017 129.17 499.217L165.323 563.648C165.552 564.056 165.935 564.356 166.385 564.483C166.836 564.61 167.319 564.552 167.728 564.324L168.912 563.666Z" fill="#EF6A70"/>
<path d="M152.095 533.582L147.956 526.208L140.714 530.196C140.44 530.345 140.199 530.547 140.003 530.79C139.808 531.033 139.663 531.313 139.577 531.612C139.49 531.912 139.464 532.226 139.5 532.535C139.536 532.845 139.633 533.145 139.785 533.417L141.589 536.65C141.901 537.2 142.418 537.605 143.026 537.777C143.635 537.949 144.287 537.874 144.842 537.569L152.095 533.582Z" fill="white"/>
<path d="M511.579 566.481C506.487 576.226 503.036 582.406 504.966 589.978C474.662 587.674 455.066 578.717 444.629 564.483C454.137 560.081 461.907 553.84 466.459 544.27C477.406 562.422 494.372 566.986 511.579 566.481Z" fill="#20AD65"/>
<path d="M587.7 462.436C592.537 471.6 595.483 477.583 602.43 480.2C584.231 502.135 566.658 512.246 549.906 512.522C551.622 502.874 550.967 493.556 545.971 484.896C566.042 486.372 578.781 475.855 587.7 462.436Z" fill="#20AD65"/>
<path d="M184.26 433.29C179.126 437.59 175.741 440.264 175.056 444.957C158.592 436.706 149.691 427.178 147.166 416.797C153.533 416.496 159.352 414.793 164.147 410.466C166.041 423.164 174.491 429.621 184.26 433.29Z" fill="#20AD65"/>
<path d="M249.061 421.67C244.552 422.746 241.63 423.359 239.742 426.042C232.164 415.91 229.651 407.308 231.34 400.135C235.353 401.908 239.481 402.632 243.788 401.436C240.987 409.844 244.182 416.415 249.061 421.67Z" fill="#20AD65"/>
<path d="M482.619 576.097C484.611 573.968 484.183 570.331 481.663 567.974C479.142 565.617 475.484 565.433 473.491 567.562C471.498 569.691 471.926 573.328 474.447 575.685C476.967 578.042 480.626 578.226 482.619 576.097Z" fill="#45D884"/>
<path d="M223.752 306.868C227.338 296.255 229.839 289.489 226.686 282.154C257.603 279.75 278.777 285.76 291.556 298.473C282.67 304.389 275.825 311.889 272.753 322.246C258.844 305.648 241.018 303.683 223.752 306.868Z" fill="#20AD65"/>
<path d="M259.509 302.093C262.112 299.312 261.551 294.56 258.257 291.48C254.963 288.4 250.183 288.157 247.58 290.938C244.977 293.72 245.538 298.471 248.832 301.552C252.126 304.632 256.906 304.874 259.509 302.093Z" fill="#45D884"/>
<path d="M577.224 494.426C579.217 492.297 578.789 488.66 576.268 486.303C573.748 483.947 570.089 483.762 568.096 485.891C566.104 488.021 566.532 491.657 569.052 494.014C571.573 496.371 575.231 496.556 577.224 494.426Z" fill="#45D884"/>
<path d="M167.824 430.458C169.251 428.933 168.944 426.329 167.139 424.641C165.333 422.953 162.713 422.82 161.286 424.345C159.86 425.869 160.167 428.474 161.972 430.162C163.777 431.85 166.397 431.982 167.824 430.458Z" fill="#45D884"/>
<path d="M241.101 415.386C242.36 414.04 242.089 411.742 240.496 410.253C238.903 408.763 236.591 408.646 235.332 409.991C234.073 411.336 234.344 413.634 235.937 415.124C237.53 416.614 239.842 416.731 241.101 415.386Z" fill="#45D884"/>
<path d="M598.699 292.451L601.543 295.441C604.85 296.042 608.983 293.857 610.642 289.759C613.137 283.59 616.212 278.828 621.966 278.467C622.08 275.979 622.185 272.815 621.1 268.957C613.45 269.786 605.935 272.659 601.008 282.37L599.204 285.85L598.699 292.451Z" fill="#FFDEC0"/>
<path d="M622.346 275.652C615.732 276.466 612.594 279.149 611.115 282.415C614.281 278.533 618.206 276.52 622.358 276.406L622.346 275.652Z" fill="#D3A281"/>
<path d="M622.287 273.272C617.363 273.999 611.693 275.976 609.496 280.06C613.656 276.139 617.612 274.759 622.395 274.05L622.287 273.272Z" fill="#D3A281"/>
<path d="M621.873 270.838C617.851 271.385 611.069 273.019 607.967 277.65C612.71 273.635 618.307 272.088 622.011 271.64L621.873 270.838Z" fill="#D3A281"/>
<path d="M270.664 441.844C265.44 446.486 264.778 450.558 265.617 453.776C267.12 459.575 267.721 463.74 262.061 469.401C261.126 472.222 263.705 474.981 267.048 475.179C274.376 471.207 280.22 463.16 276.928 445.654C275.167 443.112 273.426 442.95 270.664 441.856V441.844Z" fill="#FFDEC0"/>
<path d="M262.133 471.949C267.441 468.424 270.009 463.911 270.787 458.842C271.388 462.974 267.856 468.95 262.424 472.532L262.133 471.949Z" fill="#D3A281"/>
<path d="M263.209 473.544C268.782 470.624 272.467 464.148 272.588 459.518C273.387 464.389 269.666 470.467 263.723 473.962L263.209 473.544Z" fill="#D3A281"/>
<path d="M264.633 474.542C270.645 470.858 273.774 465.597 274.327 459.891C275.055 464.566 271.685 470.915 265.366 474.833L264.633 474.542Z" fill="#D3A281"/>
<path d="M216.614 498.442L211.769 486.567L206.547 489.247L206.824 491.086L202.393 491.059L188.493 500.124C186.088 501.684 186.726 503.351 189.659 502.937L214.155 499.496L216.614 498.442Z" fill="black"/>
<path d="M228.298 622.228L218.657 613.695L215.167 618.382L216.231 619.911L212.248 621.822L203.799 636.035C202.35 638.481 203.654 639.701 206.101 638.048L226.542 624.25L228.298 622.228Z" fill="black"/>
<path d="M226.211 630.599L220.551 615.053C329.771 564.164 331.791 563.371 387.805 467.246L431.227 472.721L447.793 477.393C446.089 480.248 444.85 482.009 440.362 488.361C362.314 590.913 360.312 592.073 226.211 630.599Z" fill="#161616"/>
<path d="M329.43 553.209C333.298 549.21 336.265 546.079 339.65 541.935L420.545 457.313L447.789 477.387L440.373 488.355C423.41 511.038 399.584 543.017 383.081 559.083C364.32 558.516 346.089 557.085 329.43 553.209Z" fill="#161616"/>
<path d="M205.719 504.082L213.327 488.793C288.598 511.69 299.963 514.484 315.664 509.697C333.005 504.4 346.475 489.463 386.864 436.036L401.019 438.701L431.239 472.715C378.483 534.048 350.726 541.677 324.901 544.757C302.413 547.44 281.615 540.322 205.731 504.082H205.719Z" fill="#161616"/>
<path d="M410.973 454.221L356.095 475.554L354.893 476.994L358.434 480.963C366.775 490.389 378.829 492.489 390.336 480.846C396.649 474.455 404.029 463.719 410.973 454.203V454.221Z" fill="black"/>
<path d="M405.748 441.475L405.541 445.11C412.262 458.866 422.375 467.18 431.227 472.715C455.832 446.793 473.777 410.102 460.776 352.79L440.071 348.099L441.917 353.207L436.013 353.529L405.748 441.475Z" fill="white"/>
<path d="M444.641 330.711L441.635 344.881L440.502 353.511L455.983 362.462L460.381 359.532L455.403 328.664L444.641 330.711Z" fill="#FFDEC0"/>
<path d="M457.698 304.605L473.438 323.743C474.243 324.725 474.18 325.26 473.176 325.753L470.567 327.033L472.671 338.676C473.098 341.032 471.709 342.363 469.701 342.51L456.174 343.511C453.947 343.679 452.158 343.027 450.445 340.112L442.052 325.828L440.42 310.519L457.698 304.605Z" fill="#FFDEC0"/>
<path d="M446.326 309.752C450.736 308.851 457.055 307.415 459.381 304.344C461.786 301.192 459.736 296.282 456.823 296.532C455.02 296.685 453.718 298.052 448.896 298.259C446.522 298.358 432.063 299.263 426.55 307.448C420.781 316.005 423.186 324.341 432.123 330.912C438.97 335.945 441.541 340.139 441.634 344.881C448.298 341.822 446.519 338.571 445.632 336.308C444.745 334.046 442.175 328.451 442.809 327.42C443.443 326.39 445.307 325.822 446.528 328.096L447.697 330.278C448.022 330.879 449.501 330.428 449.35 329.839L448.704 327.372C448.352 326.02 450.066 324.626 449.63 322.159C449.272 320.146 446.855 317.637 445.121 315.404C442.731 312.306 444.021 310.221 446.323 309.749L446.326 309.752Z" fill="#171212"/>
<path d="M445.601 326.997C444.074 325.51 441.245 326.375 440.49 328.716C439.099 333.097 445.201 336.471 448.192 334.842L445.601 326.997Z" fill="#FFDEC0"/>
<path d="M431.227 472.715C436.009 475.744 445.86 478.349 447.793 477.387C474.026 437.773 483.633 400.893 470.473 359.03L463.337 355.301L455.864 360.737" fill="white"/>
<path d="M446.475 477.721C442.961 477.721 435.1 475.317 431.145 472.82L431.28 472.607C436.05 475.612 445.781 478.163 447.693 477.288C461.385 456.603 469.916 437.544 473.77 419.026C477.897 399.177 476.776 379.58 470.355 359.117L463.336 355.452L455.926 360.839L455.776 360.638L463.312 355.154L470.565 358.943V358.991C477.019 379.517 478.144 399.171 474.001 419.086C470.142 437.647 461.595 456.742 447.87 477.465L447.852 477.495L447.822 477.511C447.392 477.673 446.934 477.745 446.475 477.721Z" fill="black"/>
<path d="M449.891 363.399L457.748 367.624L461.001 362.035L459.071 359.454L451.784 359.854L449.891 363.399Z" fill="#E75152"/>
<path d="M436.494 352.059L440.101 347.82C443.657 353.562 451.194 357.092 456.268 359.571L448.789 366.608C443.05 361.825 437.928 355.833 436.494 352.059Z" fill="white"/>
<path d="M465.065 356.567L460.812 352.519C460.123 354.064 458.707 357.402 454.965 359.52L460.917 365.461C463 362.717 464.813 358.291 465.065 356.567Z" fill="white"/>
<path d="M482.355 368.132C485.037 371.061 488.133 381.154 487.796 387.801L485.915 388.299L482.355 368.132Z" fill="black"/>
<path d="M462.394 353.73C488.432 395.241 466.645 449.56 440.363 488.343C468.941 450.549 483.884 419.594 485.913 388.285C486.626 377.284 482.276 363.565 475.392 358.102L462.394 353.73Z" fill="#161616"/>
<path d="M437.252 349.86C452.378 404.501 413.504 456.327 388.795 478.956C380.276 486.768 368.327 489.581 359.667 479.644L341.068 458.31L381.89 437.448C388.858 421.376 392.453 404.943 391.912 390.069L406.494 350.329L437.252 349.86Z" fill="#161616"/>
<path d="M437.724 348.544C444.358 370.884 444.103 405.333 418.257 443.692C417.112 433.776 420.58 412.073 423.767 399.823L435.19 394.97L427.26 387.044C430.35 374.709 432.905 356.317 430.067 348.799L437.724 348.544Z" fill="black"/>
<path d="M406.439 361.485C408.444 366.707 404.431 381.232 391.968 392.5L391.914 390.069L406.439 361.485Z" fill="black"/>
<path d="M267.447 443.47L278.046 449.87C327.278 393.2 328.922 392.446 391.901 390.075C405.474 378.432 409.189 358.961 406.484 350.335C398.415 350.53 388.748 352.068 378.873 354.818C315.651 372.422 314.211 373.261 267.438 443.476L267.447 443.47Z" fill="#161616"/>
<path d="M458.015 364.358C471.163 396.701 458.676 426.943 438.729 441.279C454.312 420.811 461.598 390.631 454.483 364.553L458.015 364.358Z" fill="#E75152"/>
<path d="M360.131 457.526L357.064 464.635L364.946 468.773C385.988 456.685 421.02 462.875 438.729 441.279C409.489 457.866 382.399 444.855 360.131 457.526Z" fill="#E75152"/>
<path d="M602.617 226.16C602.497 226.518 602.734 226.912 603.191 227.116C606.798 228.723 621.645 235.28 620.545 233.753C619.532 232.35 609.837 224.138 606.143 221.04C605.542 220.526 604.451 220.662 604.243 221.281L602.617 226.16Z" fill="#E75152"/>
<path d="M624.195 219.219L615.968 200.554C615.628 199.779 615.724 198.583 616.169 198.069L620.158 193.457C620.6 192.946 621.168 193.36 621.342 194.322L625.581 217.597C625.891 219.297 624.793 220.58 624.195 219.219Z" fill="#E75152"/>
<path d="M639.132 222.759L641.579 205.332C641.699 204.469 642.234 203.853 642.709 204.027L646.298 205.344C646.8 205.527 646.984 206.497 646.671 207.324L640.638 223.42C640.106 224.859 638.913 224.322 639.132 222.759Z" fill="#E75152"/>
<path d="M677.755 283.143C679.934 280.946 681.532 278.242 682.405 275.274C683.277 272.306 683.396 269.167 682.751 266.142L682.508 265.339C700.571 256.055 697.237 239.949 693.807 231.407C693.494 230.637 693.031 229.938 692.444 229.35C691.857 228.761 691.158 228.296 690.389 227.981C689.62 227.667 688.796 227.508 687.965 227.516C687.134 227.524 686.313 227.697 685.55 228.026L672.768 233.51L671.283 227.143C671.182 226.72 670.989 226.323 670.717 225.983C670.446 225.642 670.103 225.365 669.713 225.172C669.322 224.978 668.894 224.873 668.459 224.863C668.023 224.853 667.591 224.939 667.192 225.115L606.248 251.797C605.85 251.969 605.494 252.227 605.208 252.554C604.922 252.88 604.712 253.265 604.593 253.683C604.474 254.1 604.449 254.538 604.521 254.966C604.593 255.394 604.758 255.801 605.007 256.157L608.764 261.532L595.595 267.41C594.837 267.744 594.154 268.228 593.588 268.832C593.021 269.436 592.583 270.149 592.299 270.927C592.015 271.704 591.891 272.532 591.934 273.359C591.978 274.186 592.188 274.995 592.553 275.739C596.65 284.074 606.573 297.508 625.989 290.12L626.403 290.814C628.239 293.325 630.663 295.348 633.462 296.705C636.262 298.062 639.352 298.711 642.461 298.596C645.21 298.497 647.947 298.994 650.485 300.053C653.023 301.111 655.301 302.706 657.164 304.729L660.389 308.241L647.268 313.986C647.069 314.073 646.889 314.198 646.738 314.354C646.587 314.51 646.469 314.695 646.39 314.897C646.311 315.099 646.273 315.315 646.277 315.532C646.282 315.749 646.33 315.963 646.417 316.162L650.226 324.692L641.454 328.529C640.7 328.86 640.523 330.107 641.061 331.309C641.599 332.511 642.645 333.223 643.402 332.892L703.294 306.67C704.049 306.339 704.226 305.095 703.691 303.89C703.156 302.685 702.104 301.979 701.349 302.31L692.031 306.393L688.225 297.866C688.044 297.464 687.711 297.151 687.3 296.993C686.888 296.836 686.431 296.847 686.028 297.025L672.909 302.767L672.437 298.037C672.178 295.317 672.52 292.572 673.439 289.999C674.358 287.425 675.831 285.084 677.755 283.143ZM674.148 238.008L683.088 234.189C684.492 233.588 686.094 234.126 686.725 235.409C689.223 240.532 693.684 253.311 681.443 261.833L674.148 238.008ZM600.314 273.236C599.776 271.917 600.461 270.375 601.853 269.75L611.19 265.559L624.116 287.025C609.155 290.663 602.485 278.575 600.314 273.236Z" fill="#E75152"/>
<path d="M648.509 283.812C658.636 283.812 666.845 275.682 666.845 265.652C666.845 255.622 658.636 247.491 648.509 247.491C638.381 247.491 630.172 255.622 630.172 265.652C630.172 275.682 638.381 283.812 648.509 283.812Z" fill="white"/>
<path d="M597.284 293.803L597.221 285.486C597.179 279.777 599.461 273.996 602.539 270.315C603.119 270.27 603.934 270.652 604.312 272.253C602.509 274.606 602.229 277.977 603.768 280.393C607.604 286.402 605.572 293.07 600.399 295.747L597.284 293.803Z" fill="#FFDEC0"/>
<path d="M607.462 294.585L596.857 288.188C550.673 339.013 547.276 340.813 540.344 344.34C528.62 350.299 523.663 351.945 462.533 353.739L486.055 388.294C523.931 378.282 542.661 371.419 555.527 361.957C568.688 352.276 573.798 345.275 607.465 294.57L607.462 294.585Z" fill="#161616"/>
<path d="M466.185 353.015C477.572 369.289 481.783 384.081 481.08 398.621L475.194 404.603L481.251 407.386C478.51 420.306 469.438 438.254 459.59 454.614C472.934 421.734 479.7 383.537 461.841 353.165L466.185 353.015Z" fill="black"/>
</svg>
