<svg width="49" height="49" viewBox="0 0 49 49" fill="none" xmlns="http://www.w3.org/2000/svg">
<g clip-path="url(#clip0)">
<path d="M24.5173 49.0346C38.0579 49.0346 49.0346 38.0579 49.0346 24.5173C49.0346 10.9768 38.0579 0 24.5173 0C10.9768 0 0 10.9768 0 24.5173C0 38.0579 10.9768 49.0346 24.5173 49.0346Z" fill="#1F2123"/>
<path d="M17.2451 39.8924V14.6133H22.7858V39.8924H17.2451Z" fill="#E75152"/>
<path d="M26.2485 34.3519V9.07275H31.7892V34.3519H26.2485Z" fill="#20AD65"/>
</g>
<defs>
<clipPath id="clip0">
<rect width="49" height="49" fill="white"/>
</clipPath>
</defs>
</svg>
